<?xml version="1.0" encoding="UTF-8" standalone="no"?>
<svg
   xmlns:dc="http://purl.org/dc/elements/1.1/"
   xmlns:cc="http://creativecommons.org/ns#"
   xmlns:rdf="http://www.w3.org/1999/02/22-rdf-syntax-ns#"
   xmlns:svg="http://www.w3.org/2000/svg"
   xmlns="http://www.w3.org/2000/svg"
   xmlns:xlink="http://www.w3.org/1999/xlink"
   xmlns:sodipodi="http://sodipodi.sourceforge.net/DTD/sodipodi-0.dtd"
   xmlns:inkscape="http://www.inkscape.org/namespaces/inkscape"
   width="100.26458mm"
   height="100.26458mm"
   viewBox="0 0 100.26458 100.26458"
   version="1.1"
   id="svg8"
   inkscape:version="1.0.1 (c497b03c, 2020-09-10)"
   sodipodi:docname="app_icon.svg">
  <defs
     id="defs2">
    <linearGradient
       inkscape:collect="always"
       id="linearGradient3008">
      <stop
         style="stop-color:#0571b7;stop-opacity:1;"
         offset="0"
         id="stop3004" />
      <stop
         style="stop-color:#d10db7;stop-opacity:1"
         offset="1"
         id="stop3006" />
    </linearGradient>
    <rect
       id="p"
       width="8"
       height="8"
       x="0"
       y="0" />
    <linearGradient
       inkscape:collect="always"
       xlink:href="#linearGradient3008"
       id="linearGradient3002"
       gradientUnits="userSpaceOnUse"
       x1="90.467453"
       y1="143.40593"
       x2="93.317261"
       y2="287.32321" />
    <linearGradient
       inkscape:collect="always"
       xlink:href="#linearGradient3008"
       id="linearGradient3016"
       x1="90.467453"
       y1="143.40593"
       x2="93.317261"
       y2="287.32321"
       gradientUnits="userSpaceOnUse" />
    <rect
       id="p-3"
       width="8"
       height="8"
       x="0"
       y="0" />
  </defs>
  <sodipodi:namedview
     id="base"
     pagecolor="#ffffff"
     bordercolor="#666666"
     borderopacity="1.0"
     inkscape:pageopacity="0.0"
     inkscape:pageshadow="2"
     inkscape:zoom="0.66"
     inkscape:cx="144.62544"
     inkscape:cy="151.79596"
     inkscape:document-units="mm"
     inkscape:current-layer="layer1"
     inkscape:document-rotation="0"
     showgrid="false"
     fit-margin-top="0"
     fit-margin-left="0"
     fit-margin-right="0"
     fit-margin-bottom="0"
     inkscape:window-width="1829"
     inkscape:window-height="1174"
     inkscape:window-x="0"
     inkscape:window-y="23"
     inkscape:window-maximized="0" />
  <metadata
     id="metadata5">
    <rdf:RDF>
      <cc:Work
         rdf:about="">
        <dc:format>image/svg+xml</dc:format>
        <dc:type
           rdf:resource="http://purl.org/dc/dcmitype/StillImage" />
        <dc:title></dc:title>
      </cc:Work>
    </rdf:RDF>
  </metadata>
  <g
     inkscape:label="Ebene 1"
     inkscape:groupmode="layer"
     id="layer1"
     transform="translate(-48.775534,-141.78058)">
    <g
       id="g477"
       transform="matrix(0.26458333,0,0,0.26458333,75.141667,133.35)" />
    <rect
       style="fill:url(#linearGradient3016);fill-opacity:1;stroke:url(#linearGradient3002);stroke-width:0.264583;stroke-opacity:1"
       id="rect2968"
       width="100"
       height="100"
       x="48.907825"
       y="141.91287" />
    <g
       id="g4438"
       transform="matrix(0.43103447,0,0,0.43103449,48.907825,141.91287)">
      <rect
         x="0"
         y="0"
         width="232"
         height="232"
         fill="#ffffff00"
         id="rect3729"
         style="fill:none" />
      <g
         fill="#ffffff"
         id="g4194">
        <use
           xlink:href="#p-3"
           x="32"
           y="32"
           id="use3734"
           width="100%"
           height="100%" />
        <use
           xlink:href="#p-3"
           x="32"
           y="40"
           id="use3736"
           width="100%"
           height="100%" />
        <use
           xlink:href="#p-3"
           x="32"
           y="48"
           id="use3738"
           width="100%"
           height="100%" />
        <use
           xlink:href="#p-3"
           x="32"
           y="56"
           id="use3740"
           width="100%"
           height="100%" />
        <use
           xlink:href="#p-3"
           x="32"
           y="64"
           id="use3742"
           width="100%"
           height="100%" />
        <use
           xlink:href="#p-3"
           x="32"
           y="72"
           id="use3744"
           width="100%"
           height="100%" />
        <use
           xlink:href="#p-3"
           x="32"
           y="80"
           id="use3746"
           width="100%"
           height="100%" />
        <use
           xlink:href="#p-3"
           x="32"
           y="96"
           id="use3748"
           width="100%"
           height="100%" />
        <use
           xlink:href="#p-3"
           x="32"
           y="120"
           id="use3750"
           width="100%"
           height="100%" />
        <use
           xlink:href="#p-3"
           x="32"
           y="128"
           id="use3752"
           width="100%"
           height="100%" />
        <use
           xlink:href="#p-3"
           x="32"
           y="144"
           id="use3754"
           width="100%"
           height="100%" />
        <use
           xlink:href="#p-3"
           x="32"
           y="152"
           id="use3756"
           width="100%"
           height="100%" />
        <use
           xlink:href="#p-3"
           x="32"
           y="160"
           id="use3758"
           width="100%"
           height="100%" />
        <use
           xlink:href="#p-3"
           x="32"
           y="168"
           id="use3760"
           width="100%"
           height="100%" />
        <use
           xlink:href="#p-3"
           x="32"
           y="176"
           id="use3762"
           width="100%"
           height="100%" />
        <use
           xlink:href="#p-3"
           x="32"
           y="184"
           id="use3764"
           width="100%"
           height="100%" />
        <use
           xlink:href="#p-3"
           x="32"
           y="192"
           id="use3766"
           width="100%"
           height="100%" />
        <use
           xlink:href="#p-3"
           x="40"
           y="32"
           id="use3768"
           width="100%"
           height="100%" />
        <use
           xlink:href="#p-3"
           x="40"
           y="80"
           id="use3770"
           width="100%"
           height="100%" />
        <use
           xlink:href="#p-3"
           x="40"
           y="96"
           id="use3772"
           width="100%"
           height="100%" />
        <use
           xlink:href="#p-3"
           x="40"
           y="104"
           id="use3774"
           width="100%"
           height="100%" />
        <use
           xlink:href="#p-3"
           x="40"
           y="120"
           id="use3776"
           width="100%"
           height="100%" />
        <use
           xlink:href="#p-3"
           x="40"
           y="144"
           id="use3778"
           width="100%"
           height="100%" />
        <use
           xlink:href="#p-3"
           x="40"
           y="192"
           id="use3780"
           width="100%"
           height="100%" />
        <use
           xlink:href="#p-3"
           x="48"
           y="32"
           id="use3782"
           width="100%"
           height="100%" />
        <use
           xlink:href="#p-3"
           x="48"
           y="48"
           id="use3784"
           width="100%"
           height="100%" />
        <use
           xlink:href="#p-3"
           x="48"
           y="56"
           id="use3786"
           width="100%"
           height="100%" />
        <use
           xlink:href="#p-3"
           x="48"
           y="64"
           id="use3788"
           width="100%"
           height="100%" />
        <use
           xlink:href="#p-3"
           x="48"
           y="80"
           id="use3790"
           width="100%"
           height="100%" />
        <use
           xlink:href="#p-3"
           x="48"
           y="96"
           id="use3792"
           width="100%"
           height="100%" />
        <use
           xlink:href="#p-3"
           x="48"
           y="144"
           id="use3794"
           width="100%"
           height="100%" />
        <use
           xlink:href="#p-3"
           x="48"
           y="160"
           id="use3796"
           width="100%"
           height="100%" />
        <use
           xlink:href="#p-3"
           x="48"
           y="168"
           id="use3798"
           width="100%"
           height="100%" />
        <use
           xlink:href="#p-3"
           x="48"
           y="176"
           id="use3800"
           width="100%"
           height="100%" />
        <use
           xlink:href="#p-3"
           x="48"
           y="192"
           id="use3802"
           width="100%"
           height="100%" />
        <use
           xlink:href="#p-3"
           x="56"
           y="32"
           id="use3804"
           width="100%"
           height="100%" />
        <use
           xlink:href="#p-3"
           x="56"
           y="48"
           id="use3806"
           width="100%"
           height="100%" />
        <use
           xlink:href="#p-3"
           x="56"
           y="56"
           id="use3808"
           width="100%"
           height="100%" />
        <use
           xlink:href="#p-3"
           x="56"
           y="64"
           id="use3810"
           width="100%"
           height="100%" />
        <use
           xlink:href="#p-3"
           x="56"
           y="80"
           id="use3812"
           width="100%"
           height="100%" />
        <use
           xlink:href="#p-3"
           x="56"
           y="104"
           id="use3814"
           width="100%"
           height="100%" />
        <use
           xlink:href="#p-3"
           x="56"
           y="120"
           id="use3816"
           width="100%"
           height="100%" />
        <use
           xlink:href="#p-3"
           x="56"
           y="144"
           id="use3818"
           width="100%"
           height="100%" />
        <use
           xlink:href="#p-3"
           x="56"
           y="160"
           id="use3820"
           width="100%"
           height="100%" />
        <use
           xlink:href="#p-3"
           x="56"
           y="168"
           id="use3822"
           width="100%"
           height="100%" />
        <use
           xlink:href="#p-3"
           x="56"
           y="176"
           id="use3824"
           width="100%"
           height="100%" />
        <use
           xlink:href="#p-3"
           x="56"
           y="192"
           id="use3826"
           width="100%"
           height="100%" />
        <use
           xlink:href="#p-3"
           x="64"
           y="32"
           id="use3828"
           width="100%"
           height="100%" />
        <use
           xlink:href="#p-3"
           x="64"
           y="48"
           id="use3830"
           width="100%"
           height="100%" />
        <use
           xlink:href="#p-3"
           x="64"
           y="56"
           id="use3832"
           width="100%"
           height="100%" />
        <use
           xlink:href="#p-3"
           x="64"
           y="64"
           id="use3834"
           width="100%"
           height="100%" />
        <use
           xlink:href="#p-3"
           x="64"
           y="80"
           id="use3836"
           width="100%"
           height="100%" />
        <use
           xlink:href="#p-3"
           x="64"
           y="96"
           id="use3838"
           width="100%"
           height="100%" />
        <use
           xlink:href="#p-3"
           x="64"
           y="104"
           id="use3840"
           width="100%"
           height="100%" />
        <use
           xlink:href="#p-3"
           x="64"
           y="112"
           id="use3842"
           width="100%"
           height="100%" />
        <use
           xlink:href="#p-3"
           x="64"
           y="144"
           id="use3844"
           width="100%"
           height="100%" />
        <use
           xlink:href="#p-3"
           x="64"
           y="160"
           id="use3846"
           width="100%"
           height="100%" />
        <use
           xlink:href="#p-3"
           x="64"
           y="168"
           id="use3848"
           width="100%"
           height="100%" />
        <use
           xlink:href="#p-3"
           x="64"
           y="176"
           id="use3850"
           width="100%"
           height="100%" />
        <use
           xlink:href="#p-3"
           x="64"
           y="192"
           id="use3852"
           width="100%"
           height="100%" />
        <use
           xlink:href="#p-3"
           x="72"
           y="32"
           id="use3854"
           width="100%"
           height="100%" />
        <use
           xlink:href="#p-3"
           x="72"
           y="80"
           id="use3856"
           width="100%"
           height="100%" />
        <use
           xlink:href="#p-3"
           x="72"
           y="96"
           id="use3858"
           width="100%"
           height="100%" />
        <use
           xlink:href="#p-3"
           x="72"
           y="112"
           id="use3860"
           width="100%"
           height="100%" />
        <use
           xlink:href="#p-3"
           x="72"
           y="120"
           id="use3862"
           width="100%"
           height="100%" />
        <use
           xlink:href="#p-3"
           x="72"
           y="144"
           id="use3864"
           width="100%"
           height="100%" />
        <use
           xlink:href="#p-3"
           x="72"
           y="192"
           id="use3866"
           width="100%"
           height="100%" />
        <use
           xlink:href="#p-3"
           x="80"
           y="32"
           id="use3868"
           width="100%"
           height="100%" />
        <use
           xlink:href="#p-3"
           x="80"
           y="40"
           id="use3870"
           width="100%"
           height="100%" />
        <use
           xlink:href="#p-3"
           x="80"
           y="48"
           id="use3872"
           width="100%"
           height="100%" />
        <use
           xlink:href="#p-3"
           x="80"
           y="56"
           id="use3874"
           width="100%"
           height="100%" />
        <use
           xlink:href="#p-3"
           x="80"
           y="64"
           id="use3876"
           width="100%"
           height="100%" />
        <use
           xlink:href="#p-3"
           x="80"
           y="72"
           id="use3878"
           width="100%"
           height="100%" />
        <use
           xlink:href="#p-3"
           x="80"
           y="80"
           id="use3880"
           width="100%"
           height="100%" />
        <use
           xlink:href="#p-3"
           x="80"
           y="96"
           id="use3882"
           width="100%"
           height="100%" />
        <use
           xlink:href="#p-3"
           x="80"
           y="112"
           id="use3884"
           width="100%"
           height="100%" />
        <use
           xlink:href="#p-3"
           x="80"
           y="128"
           id="use3886"
           width="100%"
           height="100%" />
        <use
           xlink:href="#p-3"
           x="80"
           y="144"
           id="use3888"
           width="100%"
           height="100%" />
        <use
           xlink:href="#p-3"
           x="80"
           y="152"
           id="use3890"
           width="100%"
           height="100%" />
        <use
           xlink:href="#p-3"
           x="80"
           y="160"
           id="use3892"
           width="100%"
           height="100%" />
        <use
           xlink:href="#p-3"
           x="80"
           y="168"
           id="use3894"
           width="100%"
           height="100%" />
        <use
           xlink:href="#p-3"
           x="80"
           y="176"
           id="use3896"
           width="100%"
           height="100%" />
        <use
           xlink:href="#p-3"
           x="80"
           y="184"
           id="use3898"
           width="100%"
           height="100%" />
        <use
           xlink:href="#p-3"
           x="80"
           y="192"
           id="use3900"
           width="100%"
           height="100%" />
        <use
           xlink:href="#p-3"
           x="88"
           y="96"
           id="use3902"
           width="100%"
           height="100%" />
        <use
           xlink:href="#p-3"
           x="88"
           y="104"
           id="use3904"
           width="100%"
           height="100%" />
        <use
           xlink:href="#p-3"
           x="88"
           y="128"
           id="use3906"
           width="100%"
           height="100%" />
        <use
           xlink:href="#p-3"
           x="96"
           y="48"
           id="use3908"
           width="100%"
           height="100%" />
        <use
           xlink:href="#p-3"
           x="96"
           y="80"
           id="use3910"
           width="100%"
           height="100%" />
        <use
           xlink:href="#p-3"
           x="96"
           y="88"
           id="use3912"
           width="100%"
           height="100%" />
        <use
           xlink:href="#p-3"
           x="96"
           y="96"
           id="use3914"
           width="100%"
           height="100%" />
        <use
           xlink:href="#p-3"
           x="96"
           y="104"
           id="use3916"
           width="100%"
           height="100%" />
        <use
           xlink:href="#p-3"
           x="96"
           y="120"
           id="use3918"
           width="100%"
           height="100%" />
        <use
           xlink:href="#p-3"
           x="96"
           y="136"
           id="use3920"
           width="100%"
           height="100%" />
        <use
           xlink:href="#p-3"
           x="96"
           y="144"
           id="use3922"
           width="100%"
           height="100%" />
        <use
           xlink:href="#p-3"
           x="96"
           y="152"
           id="use3924"
           width="100%"
           height="100%" />
        <use
           xlink:href="#p-3"
           x="96"
           y="160"
           id="use3926"
           width="100%"
           height="100%" />
        <use
           xlink:href="#p-3"
           x="96"
           y="176"
           id="use3928"
           width="100%"
           height="100%" />
        <use
           xlink:href="#p-3"
           x="96"
           y="184"
           id="use3930"
           width="100%"
           height="100%" />
        <use
           xlink:href="#p-3"
           x="96"
           y="192"
           id="use3932"
           width="100%"
           height="100%" />
        <use
           xlink:href="#p-3"
           x="104"
           y="32"
           id="use3934"
           width="100%"
           height="100%" />
        <use
           xlink:href="#p-3"
           x="104"
           y="40"
           id="use3936"
           width="100%"
           height="100%" />
        <use
           xlink:href="#p-3"
           x="104"
           y="48"
           id="use3938"
           width="100%"
           height="100%" />
        <use
           xlink:href="#p-3"
           x="104"
           y="56"
           id="use3940"
           width="100%"
           height="100%" />
        <use
           xlink:href="#p-3"
           x="104"
           y="88"
           id="use3942"
           width="100%"
           height="100%" />
        <use
           xlink:href="#p-3"
           x="104"
           y="96"
           id="use3944"
           width="100%"
           height="100%" />
        <use
           xlink:href="#p-3"
           x="104"
           y="104"
           id="use3946"
           width="100%"
           height="100%" />
        <use
           xlink:href="#p-3"
           x="104"
           y="120"
           id="use3948"
           width="100%"
           height="100%" />
        <use
           xlink:href="#p-3"
           x="104"
           y="128"
           id="use3950"
           width="100%"
           height="100%" />
        <use
           xlink:href="#p-3"
           x="104"
           y="144"
           id="use3952"
           width="100%"
           height="100%" />
        <use
           xlink:href="#p-3"
           x="104"
           y="152"
           id="use3954"
           width="100%"
           height="100%" />
        <use
           xlink:href="#p-3"
           x="104"
           y="168"
           id="use3956"
           width="100%"
           height="100%" />
        <use
           xlink:href="#p-3"
           x="104"
           y="176"
           id="use3958"
           width="100%"
           height="100%" />
        <use
           xlink:href="#p-3"
           x="104"
           y="184"
           id="use3960"
           width="100%"
           height="100%" />
        <use
           xlink:href="#p-3"
           x="104"
           y="192"
           id="use3962"
           width="100%"
           height="100%" />
        <use
           xlink:href="#p-3"
           x="112"
           y="40"
           id="use3964"
           width="100%"
           height="100%" />
        <use
           xlink:href="#p-3"
           x="112"
           y="64"
           id="use3966"
           width="100%"
           height="100%" />
        <use
           xlink:href="#p-3"
           x="112"
           y="80"
           id="use3968"
           width="100%"
           height="100%" />
        <use
           xlink:href="#p-3"
           x="112"
           y="96"
           id="use3970"
           width="100%"
           height="100%" />
        <use
           xlink:href="#p-3"
           x="112"
           y="104"
           id="use3972"
           width="100%"
           height="100%" />
        <use
           xlink:href="#p-3"
           x="112"
           y="136"
           id="use3974"
           width="100%"
           height="100%" />
        <use
           xlink:href="#p-3"
           x="112"
           y="168"
           id="use3976"
           width="100%"
           height="100%" />
        <use
           xlink:href="#p-3"
           x="112"
           y="176"
           id="use3978"
           width="100%"
           height="100%" />
        <use
           xlink:href="#p-3"
           x="112"
           y="184"
           id="use3980"
           width="100%"
           height="100%" />
        <use
           xlink:href="#p-3"
           x="112"
           y="192"
           id="use3982"
           width="100%"
           height="100%" />
        <use
           xlink:href="#p-3"
           x="120"
           y="32"
           id="use3984"
           width="100%"
           height="100%" />
        <use
           xlink:href="#p-3"
           x="120"
           y="40"
           id="use3986"
           width="100%"
           height="100%" />
        <use
           xlink:href="#p-3"
           x="120"
           y="48"
           id="use3988"
           width="100%"
           height="100%" />
        <use
           xlink:href="#p-3"
           x="120"
           y="56"
           id="use3990"
           width="100%"
           height="100%" />
        <use
           xlink:href="#p-3"
           x="120"
           y="88"
           id="use3992"
           width="100%"
           height="100%" />
        <use
           xlink:href="#p-3"
           x="120"
           y="96"
           id="use3994"
           width="100%"
           height="100%" />
        <use
           xlink:href="#p-3"
           x="120"
           y="136"
           id="use3996"
           width="100%"
           height="100%" />
        <use
           xlink:href="#p-3"
           x="120"
           y="144"
           id="use3998"
           width="100%"
           height="100%" />
        <use
           xlink:href="#p-3"
           x="120"
           y="152"
           id="use4000"
           width="100%"
           height="100%" />
        <use
           xlink:href="#p-3"
           x="120"
           y="160"
           id="use4002"
           width="100%"
           height="100%" />
        <use
           xlink:href="#p-3"
           x="128"
           y="32"
           id="use4004"
           width="100%"
           height="100%" />
        <use
           xlink:href="#p-3"
           x="128"
           y="48"
           id="use4006"
           width="100%"
           height="100%" />
        <use
           xlink:href="#p-3"
           x="128"
           y="64"
           id="use4008"
           width="100%"
           height="100%" />
        <use
           xlink:href="#p-3"
           x="128"
           y="72"
           id="use4010"
           width="100%"
           height="100%" />
        <use
           xlink:href="#p-3"
           x="128"
           y="80"
           id="use4012"
           width="100%"
           height="100%" />
        <use
           xlink:href="#p-3"
           x="128"
           y="88"
           id="use4014"
           width="100%"
           height="100%" />
        <use
           xlink:href="#p-3"
           x="128"
           y="112"
           id="use4016"
           width="100%"
           height="100%" />
        <use
           xlink:href="#p-3"
           x="128"
           y="128"
           id="use4018"
           width="100%"
           height="100%" />
        <use
           xlink:href="#p-3"
           x="128"
           y="152"
           id="use4020"
           width="100%"
           height="100%" />
        <use
           xlink:href="#p-3"
           x="128"
           y="176"
           id="use4022"
           width="100%"
           height="100%" />
        <use
           xlink:href="#p-3"
           x="128"
           y="192"
           id="use4024"
           width="100%"
           height="100%" />
        <use
           xlink:href="#p-3"
           x="136"
           y="96"
           id="use4026"
           width="100%"
           height="100%" />
        <use
           xlink:href="#p-3"
           x="136"
           y="144"
           id="use4028"
           width="100%"
           height="100%" />
        <use
           xlink:href="#p-3"
           x="136"
           y="152"
           id="use4030"
           width="100%"
           height="100%" />
        <use
           xlink:href="#p-3"
           x="144"
           y="32"
           id="use4032"
           width="100%"
           height="100%" />
        <use
           xlink:href="#p-3"
           x="144"
           y="40"
           id="use4034"
           width="100%"
           height="100%" />
        <use
           xlink:href="#p-3"
           x="144"
           y="48"
           id="use4036"
           width="100%"
           height="100%" />
        <use
           xlink:href="#p-3"
           x="144"
           y="56"
           id="use4038"
           width="100%"
           height="100%" />
        <use
           xlink:href="#p-3"
           x="144"
           y="64"
           id="use4040"
           width="100%"
           height="100%" />
        <use
           xlink:href="#p-3"
           x="144"
           y="72"
           id="use4042"
           width="100%"
           height="100%" />
        <use
           xlink:href="#p-3"
           x="144"
           y="80"
           id="use4044"
           width="100%"
           height="100%" />
        <use
           xlink:href="#p-3"
           x="144"
           y="96"
           id="use4046"
           width="100%"
           height="100%" />
        <use
           xlink:href="#p-3"
           x="144"
           y="112"
           id="use4048"
           width="100%"
           height="100%" />
        <use
           xlink:href="#p-3"
           x="144"
           y="144"
           id="use4050"
           width="100%"
           height="100%" />
        <use
           xlink:href="#p-3"
           x="144"
           y="160"
           id="use4052"
           width="100%"
           height="100%" />
        <use
           xlink:href="#p-3"
           x="144"
           y="168"
           id="use4054"
           width="100%"
           height="100%" />
        <use
           xlink:href="#p-3"
           x="144"
           y="184"
           id="use4056"
           width="100%"
           height="100%" />
        <use
           xlink:href="#p-3"
           x="144"
           y="192"
           id="use4058"
           width="100%"
           height="100%" />
        <use
           xlink:href="#p-3"
           x="152"
           y="32"
           id="use4060"
           width="100%"
           height="100%" />
        <use
           xlink:href="#p-3"
           x="152"
           y="80"
           id="use4062"
           width="100%"
           height="100%" />
        <use
           xlink:href="#p-3"
           x="152"
           y="104"
           id="use4064"
           width="100%"
           height="100%" />
        <use
           xlink:href="#p-3"
           x="152"
           y="112"
           id="use4066"
           width="100%"
           height="100%" />
        <use
           xlink:href="#p-3"
           x="152"
           y="120"
           id="use4068"
           width="100%"
           height="100%" />
        <use
           xlink:href="#p-3"
           x="152"
           y="128"
           id="use4070"
           width="100%"
           height="100%" />
        <use
           xlink:href="#p-3"
           x="152"
           y="136"
           id="use4072"
           width="100%"
           height="100%" />
        <use
           xlink:href="#p-3"
           x="152"
           y="160"
           id="use4074"
           width="100%"
           height="100%" />
        <use
           xlink:href="#p-3"
           x="152"
           y="168"
           id="use4076"
           width="100%"
           height="100%" />
        <use
           xlink:href="#p-3"
           x="152"
           y="176"
           id="use4078"
           width="100%"
           height="100%" />
        <use
           xlink:href="#p-3"
           x="160"
           y="32"
           id="use4080"
           width="100%"
           height="100%" />
        <use
           xlink:href="#p-3"
           x="160"
           y="48"
           id="use4082"
           width="100%"
           height="100%" />
        <use
           xlink:href="#p-3"
           x="160"
           y="56"
           id="use4084"
           width="100%"
           height="100%" />
        <use
           xlink:href="#p-3"
           x="160"
           y="64"
           id="use4086"
           width="100%"
           height="100%" />
        <use
           xlink:href="#p-3"
           x="160"
           y="80"
           id="use4088"
           width="100%"
           height="100%" />
        <use
           xlink:href="#p-3"
           x="160"
           y="104"
           id="use4090"
           width="100%"
           height="100%" />
        <use
           xlink:href="#p-3"
           x="160"
           y="112"
           id="use4092"
           width="100%"
           height="100%" />
        <use
           xlink:href="#p-3"
           x="160"
           y="120"
           id="use4094"
           width="100%"
           height="100%" />
        <use
           xlink:href="#p-3"
           x="160"
           y="136"
           id="use4096"
           width="100%"
           height="100%" />
        <use
           xlink:href="#p-3"
           x="160"
           y="144"
           id="use4098"
           width="100%"
           height="100%" />
        <use
           xlink:href="#p-3"
           x="160"
           y="152"
           id="use4100"
           width="100%"
           height="100%" />
        <use
           xlink:href="#p-3"
           x="160"
           y="160"
           id="use4102"
           width="100%"
           height="100%" />
        <use
           xlink:href="#p-3"
           x="160"
           y="168"
           id="use4104"
           width="100%"
           height="100%" />
        <use
           xlink:href="#p-3"
           x="160"
           y="176"
           id="use4106"
           width="100%"
           height="100%" />
        <use
           xlink:href="#p-3"
           x="160"
           y="192"
           id="use4108"
           width="100%"
           height="100%" />
        <use
           xlink:href="#p-3"
           x="168"
           y="32"
           id="use4110"
           width="100%"
           height="100%" />
        <use
           xlink:href="#p-3"
           x="168"
           y="48"
           id="use4112"
           width="100%"
           height="100%" />
        <use
           xlink:href="#p-3"
           x="168"
           y="56"
           id="use4114"
           width="100%"
           height="100%" />
        <use
           xlink:href="#p-3"
           x="168"
           y="64"
           id="use4116"
           width="100%"
           height="100%" />
        <use
           xlink:href="#p-3"
           x="168"
           y="80"
           id="use4118"
           width="100%"
           height="100%" />
        <use
           xlink:href="#p-3"
           x="168"
           y="112"
           id="use4120"
           width="100%"
           height="100%" />
        <use
           xlink:href="#p-3"
           x="168"
           y="136"
           id="use4122"
           width="100%"
           height="100%" />
        <use
           xlink:href="#p-3"
           x="168"
           y="144"
           id="use4124"
           width="100%"
           height="100%" />
        <use
           xlink:href="#p-3"
           x="168"
           y="160"
           id="use4126"
           width="100%"
           height="100%" />
        <use
           xlink:href="#p-3"
           x="176"
           y="32"
           id="use4128"
           width="100%"
           height="100%" />
        <use
           xlink:href="#p-3"
           x="176"
           y="48"
           id="use4130"
           width="100%"
           height="100%" />
        <use
           xlink:href="#p-3"
           x="176"
           y="56"
           id="use4132"
           width="100%"
           height="100%" />
        <use
           xlink:href="#p-3"
           x="176"
           y="64"
           id="use4134"
           width="100%"
           height="100%" />
        <use
           xlink:href="#p-3"
           x="176"
           y="80"
           id="use4136"
           width="100%"
           height="100%" />
        <use
           xlink:href="#p-3"
           x="176"
           y="96"
           id="use4138"
           width="100%"
           height="100%" />
        <use
           xlink:href="#p-3"
           x="176"
           y="104"
           id="use4140"
           width="100%"
           height="100%" />
        <use
           xlink:href="#p-3"
           x="176"
           y="176"
           id="use4142"
           width="100%"
           height="100%" />
        <use
           xlink:href="#p-3"
           x="184"
           y="32"
           id="use4144"
           width="100%"
           height="100%" />
        <use
           xlink:href="#p-3"
           x="184"
           y="80"
           id="use4146"
           width="100%"
           height="100%" />
        <use
           xlink:href="#p-3"
           x="184"
           y="104"
           id="use4148"
           width="100%"
           height="100%" />
        <use
           xlink:href="#p-3"
           x="184"
           y="112"
           id="use4150"
           width="100%"
           height="100%" />
        <use
           xlink:href="#p-3"
           x="184"
           y="120"
           id="use4152"
           width="100%"
           height="100%" />
        <use
           xlink:href="#p-3"
           x="184"
           y="128"
           id="use4154"
           width="100%"
           height="100%" />
        <use
           xlink:href="#p-3"
           x="184"
           y="136"
           id="use4156"
           width="100%"
           height="100%" />
        <use
           xlink:href="#p-3"
           x="184"
           y="144"
           id="use4158"
           width="100%"
           height="100%" />
        <use
           xlink:href="#p-3"
           x="184"
           y="168"
           id="use4160"
           width="100%"
           height="100%" />
        <use
           xlink:href="#p-3"
           x="184"
           y="184"
           id="use4162"
           width="100%"
           height="100%" />
        <use
           xlink:href="#p-3"
           x="184"
           y="192"
           id="use4164"
           width="100%"
           height="100%" />
        <use
           xlink:href="#p-3"
           x="192"
           y="32"
           id="use4166"
           width="100%"
           height="100%" />
        <use
           xlink:href="#p-3"
           x="192"
           y="40"
           id="use4168"
           width="100%"
           height="100%" />
        <use
           xlink:href="#p-3"
           x="192"
           y="48"
           id="use4170"
           width="100%"
           height="100%" />
        <use
           xlink:href="#p-3"
           x="192"
           y="56"
           id="use4172"
           width="100%"
           height="100%" />
        <use
           xlink:href="#p-3"
           x="192"
           y="64"
           id="use4174"
           width="100%"
           height="100%" />
        <use
           xlink:href="#p-3"
           x="192"
           y="72"
           id="use4176"
           width="100%"
           height="100%" />
        <use
           xlink:href="#p-3"
           x="192"
           y="80"
           id="use4178"
           width="100%"
           height="100%" />
        <use
           xlink:href="#p-3"
           x="192"
           y="104"
           id="use4180"
           width="100%"
           height="100%" />
        <use
           xlink:href="#p-3"
           x="192"
           y="112"
           id="use4182"
           width="100%"
           height="100%" />
        <use
           xlink:href="#p-3"
           x="192"
           y="128"
           id="use4184"
           width="100%"
           height="100%" />
        <use
           xlink:href="#p-3"
           x="192"
           y="136"
           id="use4186"
           width="100%"
           height="100%" />
        <use
           xlink:href="#p-3"
           x="192"
           y="144"
           id="use4188"
           width="100%"
           height="100%" />
        <use
           xlink:href="#p-3"
           x="192"
           y="176"
           id="use4190"
           width="100%"
           height="100%" />
        <use
           xlink:href="#p-3"
           x="192"
           y="192"
           id="use4192"
           width="100%"
           height="100%" />
      </g>
      <g
         id="g4196" />
    </g>
  </g>
</svg>
